simulation/qsim/LogicalStep_Lab2.msim.vcd
$comment
	File created using the following command:
		vcd file LogicalStep_Lab2.msim.vcd -direction
$end
$date
	Fri Jan 26 19:19:39 2018
$end
$version
	ModelSim Version 10.4b
$end
$timescale
	1ps
$end

$scope module LogicalStep_Lab2_top_vlg_vec_tst $end
$var reg 1 ! clkin_50 $end
$var reg 4 " pb [3:0] $end
$var reg 8 # sw [7:0] $end
$var wire 1 $ leds [7] $end
$var wire 1 % leds [6] $end
$var wire 1 & leds [5] $end
$var wire 1 ' leds [4] $end
$var wire 1 ( leds [3] $end
$var wire 1 ) leds [2] $end
$var wire 1 * leds [1] $end
$var wire 1 + leds [0] $end
$var wire 1 , seg7_char1 $end
$var wire 1 - seg7_char2 $end
$var wire 1 . seg7_data [6] $end
$var wire 1 / seg7_data [5] $end
$var wire 1 0 seg7_data [4] $end
$var wire 1 1 seg7_data [3] $end
$var wire 1 2 seg7_data [2] $end
$var wire 1 3 seg7_data [1] $end
$var wire 1 4 seg7_data [0] $end

$scope module i1 $end
$var wire 1 5 gnd $end
$var wire 1 6 vcc $end
$var wire 1 7 unknown $end
$var tri1 1 8 devclrn $end
$var tri1 1 9 devpor $end
$var tri1 1 : devoe $end
$var wire 1 ; ~QUARTUS_CREATED_GND~I_combout $end
$var wire 1 < ~QUARTUS_CREATED_UNVM~~busy $end
$var wire 1 = ~QUARTUS_CREATED_ADC1~~eoc $end
$var wire 1 > seg7_data[1]~output_o $end
$var wire 1 ? seg7_data[5]~output_o $end
$var wire 1 @ seg7_data[6]~output_o $end
$var wire 1 A leds[0]~output_o $end
$var wire 1 B leds[1]~output_o $end
$var wire 1 C leds[2]~output_o $end
$var wire 1 D leds[3]~output_o $end
$var wire 1 E leds[4]~output_o $end
$var wire 1 F leds[5]~output_o $end
$var wire 1 G leds[6]~output_o $end
$var wire 1 H leds[7]~output_o $end
$var wire 1 I seg7_data[0]~output_o $end
$var wire 1 J seg7_data[2]~output_o $end
$var wire 1 K seg7_data[3]~output_o $end
$var wire 1 L seg7_data[4]~output_o $end
$var wire 1 M seg7_char1~output_o $end
$var wire 1 N seg7_char2~output_o $end
$var wire 1 O pb[3]~input_o $end
$var wire 1 P sw[1]~input_o $end
$var wire 1 Q sw[5]~input_o $end
$var wire 1 R sw[4]~input_o $end
$var wire 1 S sw[0]~input_o $end
$var wire 1 T INST5|output[0]~1 $end
$var wire 1 U INST5|output[1]~2_combout $end
$var wire 1 V INST6|hex_out[1]~1_combout $end
$var wire 1 W sw[2]~input_o $end
$var wire 1 X sw[6]~input_o $end
$var wire 1 Y INST5|output[1]~3 $end
$var wire 1 Z INST5|output[2]~4_combout $end
$var wire 1 [ INST6|hex_out[2]~2_combout $end
$var wire 1 \ sw[7]~input_o $end
$var wire 1 ] sw[3]~input_o $end
$var wire 1 ^ INST5|output[2]~5 $end
$var wire 1 _ INST5|output[3]~6_combout $end
$var wire 1 ` INST6|hex_out[3]~3_combout $end
$var wire 1 a INST5|output[0]~0_combout $end
$var wire 1 b INST6|hex_out[0]~0_combout $end
$var wire 1 c INST2|Mux5~0_combout $end
$var wire 1 d INST6|hex_out[7]~7_combout $end
$var wire 1 e INST6|hex_out[6]~6_combout $end
$var wire 1 f INST6|hex_out[5]~5_combout $end
$var wire 1 g INST5|output[3]~7 $end
$var wire 1 h INST5|output[4]~8_combout $end
$var wire 1 i INST6|hex_out[4]~4_combout $end
$var wire 1 j INST1|Mux5~0_combout $end
$var wire 1 k clkin_50~input_o $end
$var wire 1 l clkin_50~inputclkctrl_outclk $end
$var wire 1 m INST3|clk_proc:COUNT[0]~0_combout $end
$var wire 1 n INST3|clk_proc:COUNT[0]~q $end
$var wire 1 o INST3|clk_proc:COUNT[1]~1_combout $end
$var wire 1 p INST3|clk_proc:COUNT[1]~q $end
$var wire 1 q INST3|clk_proc:COUNT[1]~2 $end
$var wire 1 r INST3|clk_proc:COUNT[2]~1_combout $end
$var wire 1 s INST3|clk_proc:COUNT[2]~q $end
$var wire 1 t INST3|clk_proc:COUNT[2]~2 $end
$var wire 1 u INST3|clk_proc:COUNT[3]~1_combout $end
$var wire 1 v INST3|clk_proc:COUNT[3]~q $end
$var wire 1 w INST3|clk_proc:COUNT[3]~2 $end
$var wire 1 x INST3|clk_proc:COUNT[4]~1_combout $end
$var wire 1 y INST3|clk_proc:COUNT[4]~q $end
$var wire 1 z INST3|clk_proc:COUNT[4]~2 $end
$var wire 1 { INST3|clk_proc:COUNT[5]~1_combout $end
$var wire 1 | INST3|clk_proc:COUNT[5]~q $end
$var wire 1 } INST3|clk_proc:COUNT[5]~2 $end
$var wire 1 ~ INST3|clk_proc:COUNT[6]~1_combout $end
$var wire 1 !! INST3|clk_proc:COUNT[6]~q $end
$var wire 1 "! INST3|clk_proc:COUNT[6]~2 $end
$var wire 1 #! INST3|clk_proc:COUNT[7]~1_combout $end
$var wire 1 $! INST3|clk_proc:COUNT[7]~q $end
$var wire 1 %! INST3|clk_proc:COUNT[7]~2 $end
$var wire 1 &! INST3|clk_proc:COUNT[8]~1_combout $end
$var wire 1 '! INST3|clk_proc:COUNT[8]~q $end
$var wire 1 (! INST3|clk_proc:COUNT[8]~2 $end
$var wire 1 )! INST3|clk_proc:COUNT[9]~1_combout $end
$var wire 1 *! INST3|clk_proc:COUNT[9]~q $end
$var wire 1 +! INST3|clk_proc:COUNT[9]~2 $end
$var wire 1 ,! INST3|clk_proc:COUNT[10]~1_combout $end
$var wire 1 -! INST3|clk_proc:COUNT[10]~q $end
$var wire 1 .! INST3|DOUT_TEMP[1]~0_combout $end
$var wire 1 /! INST2|Mux1~0_combout $end
$var wire 1 0! INST1|Mux1~0_combout $end
$var wire 1 1! INST3|DOUT_TEMP[5]~1_combout $end
$var wire 1 2! INST1|Mux0~0_combout $end
$var wire 1 3! INST2|Mux0~0_combout $end
$var wire 1 4! INST3|DOUT_TEMP[6]~2_combout $end
$var wire 1 5! pb[2]~input_o $end
$var wire 1 6! pb[0]~input_o $end
$var wire 1 7! pb[1]~input_o $end
$var wire 1 8! INST7|Mux7~2_combout $end
$var wire 1 9! INST7|Mux7~3_combout $end
$var wire 1 :! INST7|Mux7~4_combout $end
$var wire 1 ;! INST8|hex_out[1]~6_combout $end
$var wire 1 <! INST8|hex_out[1]~19_combout $end
$var wire 1 =! INST8|hex_out[1]~7_combout $end
$var wire 1 >! INST8|hex_out[1]~9_combout $end
$var wire 1 ?! INST8|hex_out[1]~8_combout $end
$var wire 1 @! INST8|hex_out[1]~10_combout $end
$var wire 1 A! INST8|hex_out[2]~20_combout $end
$var wire 1 B! INST8|hex_out[2]~12_combout $end
$var wire 1 C! INST8|hex_out[2]~11_combout $end
$var wire 1 D! INST8|hex_out[2]~13_combout $end
$var wire 1 E! INST8|hex_out[3]~21_combout $end
$var wire 1 F! INST8|hex_out[3]~14_combout $end
$var wire 1 G! INST8|hex_out[3]~15_combout $end
$var wire 1 H! INST8|hex_out[3]~16_combout $end
$var wire 1 I! INST8|hex_out[5]~17_combout $end
$var wire 1 J! INST8|hex_out[4]~18_combout $end
$var wire 1 K! INST2|Mux6~0_combout $end
$var wire 1 L! INST1|Mux6~0_combout $end
$var wire 1 M! INST3|DOUT[0]~0_combout $end
$var wire 1 N! INST2|Mux4~0_combout $end
$var wire 1 O! INST1|Mux4~0_combout $end
$var wire 1 P! INST3|DOUT[2]~2_combout $end
$var wire 1 Q! INST2|Mux3~0_combout $end
$var wire 1 R! INST1|Mux3~0_combout $end
$var wire 1 S! INST3|DOUT[3]~3_combout $end
$var wire 1 T! INST1|Mux2~0_combout $end
$var wire 1 U! INST2|Mux2~0_combout $end
$var wire 1 V! INST3|DOUT[4]~4_combout $end
$upscope $end
$upscope $end
$enddefinitions $end
#0
$dumpvars
x!
b1101 "
b0 #
0+
0*
0)
0(
0'
0&
0%
0$
1,
0-
14
z3
12
11
10
z/
0.
05
16
x7
18
19
1:
0;
z<
z=
z>
z?
0@
0A
0B
0C
0D
0E
0F
0G
0H
1I
1J
1K
1L
1M
0N
1O
0P
0Q
0R
0S
0T
0U
0V
0W
0X
1Y
0Z
0[
0\
0]
0^
0_
0`
0a
0b
0c
0d
0e
0f
1g
0h
0i
0j
xk
xl
1m
0n
0o
0p
0q
0r
0s
1t
0u
0v
0w
0x
0y
1z
0{
0|
0}
0~
0!!
1"!
0#!
0$!
0%!
0&!
0'!
1(!
0)!
0*!
0+!
0,!
0-!
1.!
0/!
00!
11!
02!
03!
04!
15!
16!
07!
08!
19!
0:!
0;!
1<!
0=!
1>!
1?!
0@!
1A!
1B!
1C!
0D!
1E!
1F!
1G!
0H!
0I!
0J!
0K!
0L!
0M!
0N!
0O!
0P!
0Q!
0R!
0S!
0T!
0U!
0V!
$end
#10000
b10000 #
1R
18!
1i
1a
09!
1T!
1R!
1L!
10!
1V!
1S!
1M!
1:!
01!
0?
1A
0I
0K
0L
00
01
04
1+
0/
#20000
b110000 #
b100000 #
1Q
0R
0>!
0<!
1f
1U
08!
0i
0a
0T!
0R!
1O!
0L!
12!
19!
1@!
1B
0V!
0S!
1P!
0M!
1*
14!
0:!
0A
z@
1I
0J
1K
1L
10
11
02
14
z.
0+
#30000
b110000 #
1R
18!
1i
1a
09!
1T!
0O!
1V!
0P!
1:!
1A
1J
0L
00
12
1+
#40000
b1110000 #
b1010000 #
b1000000 #
1X
0Q
0R
0B!
0A!
1e
1Z
0?!
1<!
0f
0U
08!
0i
0a
1R!
1L!
00!
1?!
1>!
19!
1D!
1C
1S!
1M!
1)
11!
0@!
0:!
0A
0B
z?
0I
0K
01
04
z/
0*
0+
#50000
b1000001 #
b1001 "
b1011 "
b1010001 #
1R
1S
05!
17!
18!
1i
1T
1b
0E!
0<!
1;!
0R!
0L!
1j
1U
1U!
1Q!
1K!
1/!
0G!
0F!
0?!
0>!
0S!
0M!
0.!
0>
1I
1K
11
14
03
#60000
b1110001 #
b1100001 #
1Q
0R
1?!
1f
0Y
0U
08!
0i
0T
1a
0T!
1^
0Z
1Y
1U
1@!
1:!
1A
1B
0V!
1_
0^
1Z
1*
1+
1L
0_
10
#70000
b1110001 #
1R
18!
1i
1T
0a
1T!
1R!
02!
10!
0j
0Y
0U
0:!
0A
1V!
1S!
1^
0Z
0+
04!
01!
1.!
z>
0?
0@
0K
0L
1_
00
01
0.
0/
z3
#80000
b11110001 #
b10110001 #
b10010001 #
b10000001 #
1\
0X
0Q
0R
1F!
1d
0g
0_
0C!
0e
0^
1Z
0?!
0f
1Y
1U
08!
0i
0T
1a
0T!
0R!
12!
00!
1h
1g
1_
0Z
0U
1H!
0D!
0@!
1:!
1A
0B
0C
1D
0V!
0S!
0h
1(
0)
0*
1+
14!
11!
z?
z@
1K
1L
10
11
z.
z/
#90000
b10010001 #
1R
18!
1i
1T
0a
1T!
1U
0:!
0A
1V!
0+
0L
00
#100000
b10010011 #
b1010 "
b10010010 #
b1110 "
b10110010 #
b10100010 #
1Q
0R
1P
0S
15!
06!
1<!
1f
0Y
08!
0i
0T
1V
0b
1E!
1=!
0;!
09!
1?!
0T!
1R!
1Z
19!
0U
0U!
0Q!
1N!
0K!
13!
1G!
0F!
1B!
1D!
1@!
1:!
1A
1B
1C
0V!
1S!
1)
1*
1+
0D!
0:!
0H!
0D
0A
0C
0K
1L
10
01
0)
0+
0(
#110000
b10110010 #
1R
1i
1a
0R!
1L!
1j
0S!
1M!
0.!
0>
0I
1K
11
04
03
#120000
b11110010 #
b11010010 #
b11000010 #
1X
0Q
0R
1A!
1e
1^
0Z
0?!
1>!
0<!
0f
1Y
1U
0i
0a
1O!
10!
0g
0_
0^
1Z
0@!
0B
1P!
1h
1g
1_
0*
01!
0?
0J
0h
02
0/
#130000
b11010010 #
1R
1i
1a
0O!
0j
0P!
1.!
z>
1J
12
z3
#140000
b11110010 #
b11100010 #
1Q
0R
1<!
1f
0Y
0U
0i
0a
1?!
0>!
1O!
0L!
00!
1j
1^
0Z
1P!
0M!
0g
0_
1@!
11!
0.!
0>
z?
1B
1I
0J
1h
02
14
1*
z/
03
#150000
b1100 "
b1101 "
b11100011 #
b1001 "
b11110011 #
05!
07!
16!
1R
1S
0E!
0A!
0=!
0<!
09!
18!
1i
1T
1b
1I!
1F
1G
1H
0G!
1F!
1C!
0B!
0?!
1R!
1U
1U!
0N!
1$
1%
1&
1:!
1J!
1E
1A
1S!
1+
1'
1H!
1D!
1C
1D
0K
01
1(
1)
#160000
b1110011 #
b110011 #
b10011 #
b11 #
0\
0X
0Q
0R
0F!
0d
1g
1_
0C!
0e
0^
1Z
1?!
0f
0U
0i
0T
1a
0R!
0O!
02!
0j
0h
0_
1Y
1U
0S!
0P!
0Z
04!
1.!
z>
0@
1J
1K
11
12
0.
z3
#170000
b10011 #
1R
1i
1T
0a
1T!
1R!
1L!
10!
0Y
0U
1V!
1S!
1M!
1Z
01!
0?
0I
0K
0L
00
01
04
0/
#180000
b110011 #
b100011 #
1Q
0R
0?!
1f
1U
0i
0T
1a
0T!
0R!
1O!
0L!
12!
0U
0V!
0S!
1P!
0M!
14!
z@
1I
0J
1K
1L
10
11
02
14
z.
#190000
b110011 #
1R
1i
1T
0a
1T!
0O!
1U
1V!
0P!
1J
0L
00
12
#200000
b110111 #
b110101 #
b1011 "
b110100 #
b1111 "
b1110100 #
b1010100 #
b1000100 #
1X
0Q
0R
1W
0P
0S
15!
17!
1e
1^
1<!
0f
1Y
08!
0i
0T
1[
0V
0b
1E!
1=!
19!
0I!
0F
0G
0H
1R!
1L!
00!
1_
1?!
1>!
0Z
0U
1Q!
1K!
0/!
1G!
1F!
1B!
0$
0%
0&
0:!
0J!
0E
0A
1S!
1M!
0+
0'
11!
0H!
0@!
0D!
0C
0B
0D
z?
0I
0K
01
04
z/
0(
0*
0)
#210000
b1010100 #
1R
1i
1a
0R!
0L!
1j
0S!
0M!
0.!
0>
1I
1K
11
14
03
#220000
b1110100 #
b1100100 #
1Q
0R
0?!
0<!
1f
1U
0i
0a
0T!
0V!
1L
10
#230000
b1110100 #
1R
1i
1a
1T!
1R!
02!
10!
0j
1V!
1S!
04!
01!
1.!
z>
0?
0@
0K
0L
00
01
0.
0/
z3
#240000
b11110100 #
b10110100 #
b10010100 #
b10000100 #
1\
0X
0Q
0R
0F!
0E!
1d
0g
0_
1A!
0e
0^
1Z
1<!
0f
0U
0i
0a
0T!
0R!
12!
00!
1h
1g
1_
1?!
0V!
0S!
0h
14!
11!
z?
z@
1K
1L
10
11
z.
z/
#250000
b111 "
b110 "
b100 "
b10000101 #
b0 "
b10010101 #
0O
05!
07!
06!
1R
1S
0A!
0<!
1;!
0d
1`
09!
18!
1T
0?!
02!
0U!
0Q!
1N!
1/!
1c
1U
1H!
1D!
1C
1D
1V
1(
1)
1@!
04!
0@
1B
0K!
0/!
1*
0.
#260000
b10110101 #
b10100101 #
1Q
0R
0Y
0U
0T
1a
1^
0Z
0V
1Y
1U
1b
0@!
1:!
1A
0B
0g
0_
0[
0N!
1K!
1/!
0c
0^
1Z
1V
0*
1+
0D!
1@!
1B
0C
1h
0`
0/!
1c
1g
1_
1[
0)
1*
0H!
1D!
1C
0D
1i
1U!
1Q!
0K!
03!
1/!
0c
0h
1`
0(
1)
1J!
1H!
1D
1E
1T!
1R!
1L!
10!
0i
0U!
1N!
13!
0/!
1c
1'
1(
0J!
0E
1V!
1S!
1M!
0T!
0R!
0L!
00!
0'
01!
0?
0I
0K
0L
0V!
0S!
0M!
00
01
04
0/
11!
z?
1I
1K
1L
10
11
14
z/
#270000
b10110101 #
1R
1T
0a
0Y
0U
0b
0:!
0A
1^
0Z
0V
0Q!
0+
0@!
0B
0g
0_
0[
1K!
1/!
0*
0D!
0C
1h
0`
0N!
0K!
0/!
0c
0)
0H!
0D
1i
03!
0(
1J!
1E
1T!
1R!
1L!
10!
1'
1V!
1S!
1M!
01!
0?
0I
0K
0L
00
01
04
0/
#280000
b11110101 #
b11010101 #
b11000101 #
1X
0Q
0R
1Z
1Y
1U
0T
1a
1[
0Z
1V
0U
1b
1D!
1@!
1:!
1A
1B
1C
1U!
1Q!
1/!
0[
0V
1)
1*
1+
0D!
0@!
0B
0C
1K!
0)
0*
#290000
b11010101 #
1R
1T
0a
1U
0b
0:!
0A
1V
0U!
0Q!
0K!
0/!
0+
1@!
1B
1N!
13!
1/!
1*
#300000
b11010111 #
b1000 "
b1001 "
b1011 "
b11010110 #
b1111 "
b11110110 #
b11100110 #
1Q
0R
1P
0S
1O
15!
17!
16!
1f
0Y
08!
0i
0T
0;!
1e
1d
1[
19!
0J!
1:!
1A
0E
0T!
0R!
1O!
0L!
12!
00!
1j
1Z
0U
0N!
0/!
1c
0'
1+
0@!
0:!
0A
0B
0V!
0S!
1P!
0M!
0*
0+
14!
11!
0.!
0>
z?
z@
1I
0J
1K
1L
10
11
02
14
z.
z/
03
#310000
b11110110 #
1R
1i
1a
1R!
1S!
0K
01
#320000
b1110110 #
b110110 #
b10110 #
b110 #
0\
0X
0Q
0R
1E!
0d
1g
1_
1A!
0e
0Z
1<!
0f
1Y
1U
0i
0a
1F!
0R!
0O!
02!
0j
0h
0^
1Z
0S!
0P!
0_
04!
1.!
z>
0@
1J
1K
11
12
0.
z3
#330000
b10110 #
1R
1i
1a
1T!
1R!
1L!
10!
1V!
1S!
1M!
01!
0?
0I
0K
0L
00
01
04
0/
#340000
b110110 #
b100110 #
1Q
0R
1?!
0>!
0<!
1f
0Y
0U
0i
0a
0?!
1>!
0T!
0R!
1O!
0L!
12!
1^
0Z
1@!
1B
0V!
0S!
1P!
0M!
1_
1*
0@!
14!
z@
0B
1I
0J
1K
1L
10
11
02
14
0*
z.
#350000
b111 "
b110 "
b100 "
b100111 #
b0 "
b110111 #
0O
05!
07!
06!
1R
1S
0E!
0A!
1;!
0f
1`
0[
0V
09!
18!
1T
0F!
0O!
02!
00!
0c
1U
0P!
1V
1H!
04!
11!
1@!
1B
z?
0@
1D
1J
1Q!
12
1(
0.
z/
1*
#360000
b1110111 #
b1010111 #
b1000111 #
1X
0Q
0R
1Z
0U
0T
1a
1[
0V
1Y
1U
1b
1D!
0@!
1:!
1A
0B
1C
0Q!
1K!
1/!
0Z
1V
1)
0*
1+
1@!
1B
0[
1Q!
1N!
0K!
0/!
1c
1*
0D!
0C
0Q!
0N!
1K!
0)
#370000
b1010111 #
1R
1T
0a
0Y
0U
0b
0:!
0A
1Z
0V
1Q!
0K!
0c
0+
0@!
0B
1[
0Q!
0*
1D!
1C
1N!
1K!
1/!
1c
1)
#380000
b1110111 #
b1100111 #
1Q
0R
1U
0T
1a
1V
0U
1b
1@!
1:!
1A
1B
1Q!
0K!
0/!
0V
1*
1+
0@!
0B
0Q!
0N!
1K!
1/!
0c
0*
#390000
b1110111 #
1R
1T
0a
1U
0b
0:!
0A
1V
1N!
1c
0+
1@!
1B
0K!
0/!
1*
#400000
b1111111 #
b1111011 #
b1111001 #
b11111001 #
b1000 "
b1001 "
b1011 "
b11111000 #
b1111 "
b10111000 #
b10011000 #
b10001000 #
1\
0X
0Q
0R
1]
0W
0P
0S
1O
15!
17!
16!
1d
0g
1A!
0^
1<!
1Y
08!
0T
0[
0V
0;!
19!
1:!
1A
12!
1h
1C!
0_
1?!
0Z
0U
0N!
0c
1+
0H!
0D!
0@!
0:!
0A
0B
0C
0D
0(
0)
0*
0+
14!
z@
z.
#410000
b10011000 #
1R
1i
1a
1T!
1V!
0L
00
#420000
b10111000 #
b10101000 #
1Q
0R
0?!
0<!
1f
1U
0i
0a
0T!
1R!
0V!
1S!
0K
1L
10
01
#430000
b10111000 #
1R
1i
1a
0R!
1L!
1j
0S!
1M!
0.!
0>
0I
1K
11
04
03
#440000
b11111000 #
b11011000 #
b11001000 #
1X
0Q
0R
0C!
0A!
1e
1Z
1<!
0f
0U
0i
0a
1O!
10!
1?!
1P!
01!
0?
0J
02
0/
#450000
b111 "
b110 "
b100 "
b11001001 #
b0 "
b11011001 #
0O
05!
07!
06!
1R
1S
0<!
1;!
1i
0e
0d
0`
1[
09!
18!
1T
1J!
1E
0?!
1T!
1R!
0O!
02!
0j
1U!
1Q!
1K!
1U
1'
1D!
1C
1V!
1S!
0P!
1V
1)
1@!
04!
1.!
z>
0@
1B
1J
0K
0L
0U!
0Q!
0K!
1c
00
01
12
1*
0.
z3
#460000
b11111001 #
b11101001 #
1Q
0R
0Y
0U
0T
1a
1^
0Z
0V
1Y
1U
1b
0@!
1:!
1A
0B
1_
0[
1U!
0^
1Z
1V
0*
1+
0D!
1@!
1B
0C
1`
1/!
0c
0_
1[
0)
1*
1H!
1D!
1C
1D
0U!
1Q!
1N!
0/!
1c
0`
1(
1)
0H!
0D
1U!
0N!
03!
1/!
0c
0(
#470000
b11111001 #
1R
1T
0a
0Y
0U
0b
0:!
0A
1^
0Z
0V
0U!
0Q!
13!
0/!
1c
0+
0@!
0B
1_
0[
1U!
1Q!
1K!
0c
0*
0D!
0C
1`
0U!
0Q!
0K!
03!
0)
1H!
1D
13!
1(
#480000
b1111001 #
b111001 #
b11001 #
b1001 #
0\
0X
0Q
0R
0_
0^
1Z
1Y
1U
0T
1a
0`
1g
1_
1[
0Z
1V
0U
1b
0H!
1D!
1@!
1:!
1A
1B
1C
0D
1U!
1Q!
03!
1/!
0h
1`
0[
0V
0(
1)
1*
1+
1H!
0D!
0@!
0B
0C
1D
0i
0Q!
13!
0/!
1(
0)
0*
0J!
0E
0T!
0R!
0L!
00!
0'
0V!
0S!
0M!
11!
z?
1I
1K
1L
10
11
14
z/
#490000
b11001 #
1R
1T
0a
1U
0b
0:!
0A
1V
0U!
0+
1@!
1B
1Q!
1*
#500000
b11011 #
b1000 "
b1001 "
b1011 "
b11010 #
b1111 "
b111010 #
b101010 #
1Q
0R
1P
0S
1O
15!
17!
16!
1f
0Y
08!
0T
1E!
1A!
0;!
19!
1:!
1A
1O!
12!
10!
1Z
0U
1C!
1+
0H!
0@!
0:!
0A
0B
0D
1P!
0(
0*
0+
14!
01!
0?
z@
0J
02
z.
0/
#510000
b111010 #
1R
1i
1a
1T!
0O!
1V!
0P!
1J
0L
00
12
#520000
b1111010 #
b1011010 #
b1001010 #
1X
0Q
0R
0C!
0A!
1e
1^
0Z
1<!
0f
1Y
1U
0i
0a
1R!
1L!
00!
0g
0_
0^
1Z
1S!
1M!
1h
1g
1_
11!
z?
0I
0K
0h
01
04
z/
#530000
b1011010 #
1R
1i
1a
0R!
0L!
1j
0S!
0M!
0.!
0>
1I
1K
11
14
03
#540000
b1111010 #
b1101010 #
1Q
0R
1?!
0>!
0<!
1f
0Y
0U
0i
0a
0?!
1>!
0T!
1^
0Z
1@!
1B
0V!
0g
0_
1*
0@!
0B
1L
1h
10
0*
#550000
b111 "
b110 "
b100 "
b1101011 #
b0 "
b1111011 #
0O
05!
07!
06!
1R
1S
0E!
1;!
1i
0f
0e
0`
0V
09!
18!
1T
1J!
1E
1T!
1R!
1L!
02!
10!
0j
0Q!
03!
1U
1'
1V!
1S!
1M!
1V
04!
01!
1.!
1@!
1B
z>
0?
0@
0I
0K
0L
1N!
13!
1/!
00
01
04
0.
0/
z3
1*
#560000
b11111011 #
b10111011 #
b10011011 #
b10001011 #
1\
0X
0Q
0R
1_
0^
1Z
0U
0T
1a
1`
0_
1[
0V
1Y
1U
1b
1H!
1D!
0@!
1:!
1A
0B
1C
1D
0N!
1K!
0`
0Z
1V
1(
1)
0*
1+
0H!
1@!
1B
0D
1U!
1Q!
0K!
03!
0[
0(
1*
0D!
0C
0Q!
13!
0)
#570000
b10011011 #
1R
1T
0a
0Y
0U
0b
0:!
0A
1Z
0V
0U!
1N!
0+
0@!
0B
1[
0N!
03!
0/!
0*
1D!
1C
1U!
1Q!
1K!
13!
1)
#580000
b10111011 #
b10101011 #
1Q
0R
1U
0T
1a
1V
0U
1b
1@!
1:!
1A
1B
0K!
03!
1/!
0V
1*
1+
0@!
0B
0Q!
13!
0/!
1c
0*
#590000
b10111011 #
1R
1T
0a
1U
0b
0:!
0A
1V
1Q!
1K!
0c
0+
1@!
1B
0U!
0Q!
0K!
1c
1*
#600000
b10111111 #
b10111101 #
b1000 "
b1001 "
b1011 "
b10111100 #
b1111 "
b11111100 #
b11011100 #
b11001100 #
1X
0Q
0R
1W
0P
0S
1O
15!
17!
16!
1e
1^
1<!
1Y
08!
0i
0T
0V
0;!
1d
1`
19!
0J!
1:!
1A
0E
0T!
0R!
1O!
12!
1j
1_
1?!
0Z
0U
1N!
1K!
1/!
0'
1+
0D!
0@!
0:!
0A
0B
0C
0V!
0S!
1P!
0)
0*
0+
14!
0.!
0>
z@
0J
1K
1L
10
11
02
z.
03
#610000
b11011100 #
1R
1i
1a
0O!
0j
0P!
1.!
z>
1J
12
z3
#620000
b11111100 #
b11101100 #
1Q
0R
0?!
0<!
1f
1U
0i
0a
1O!
0L!
00!
1j
1P!
0M!
11!
0.!
0>
z?
1I
0J
02
14
z/
03
#630000
b11111100 #
1R
1i
1a
1R!
1S!
0K
01
#640000
b1111100 #
b111100 #
b11100 #
b1100 #
0\
0X
0Q
0R
1E!
0d
0_
1A!
0e
0^
1Z
1<!
0f
0U
0i
0a
0R!
0O!
02!
0j
1g
1_
1?!
0S!
0P!
0h
04!
1.!
z>
0@
1J
1K
11
12
0.
z3
#650000
b111 "
b110 "
b100 "
b1101 #
b0 "
b11101 #
0O
05!
07!
06!
1R
1S
0E!
0A!
0<!
1;!
09!
18!
1T
0?!
1U
1H!
1D!
1C
1D
1V
1(
1)
1@!
1B
0K!
0/!
1*
#660000
b111101 #
b101101 #
1Q
0R
0Y
0U
0T
1a
1^
0Z
0V
1Y
1U
1b
0@!
1:!
1A
0B
0g
0_
0[
0N!
1K!
1/!
0c
0^
1Z
1V
0*
1+
0D!
1@!
1B
0C
1h
0`
0/!
1c
1g
1_
1[
0)
1*
0H!
1D!
1C
0D
1i
1U!
1Q!
0K!
03!
1/!
0c
0h
1`
0(
1)
1J!
1H!
1D
1E
1T!
1R!
1L!
10!
0i
0U!
1N!
13!
0/!
1c
1'
1(
0J!
0E
1V!
1S!
1M!
0T!
0R!
0L!
00!
0'
01!
0?
0I
0K
0L
0V!
0S!
0M!
00
01
04
0/
11!
z?
1I
1K
1L
10
11
14
z/
#670000
b111101 #
1R
1T
0a
0Y
0U
0b
0:!
0A
1^
0Z
0V
0Q!
0+
0@!
0B
0g
0_
0[
1K!
1/!
0*
0D!
0C
1h
0`
0N!
0K!
0/!
0c
0)
0H!
0D
1i
03!
0(
1J!
1E
1T!
1R!
1L!
10!
1'
1V!
1S!
1M!
01!
0?
0I
0K
0L
00
01
04
0/
#680000
b1111101 #
b1011101 #
b1001101 #
1X
0Q
0R
1Z
1Y
1U
0T
1a
1[
0Z
1V
0U
1b
1D!
1@!
1:!
1A
1B
1C
1U!
1Q!
1/!
0[
0V
1)
1*
1+
0D!
0@!
0B
0C
1K!
0)
0*
#690000
b1011101 #
1R
1T
0a
1U
0b
0:!
0A
1V
0U!
0Q!
0K!
0/!
0+
1@!
1B
1N!
13!
1/!
1*
#700000
b1011111 #
b1000 "
b1001 "
b1011 "
b1011110 #
b1111 "
b1111110 #
b1101110 #
1Q
0R
1P
0S
1O
15!
17!
16!
1f
0Y
08!
0i
0T
1E!
0;!
1e
1`
1[
19!
0J!
1:!
1A
0E
0T!
0R!
0L!
12!
00!
1j
1Z
0U
0/!
1c
0'
1+
0@!
0:!
0A
0B
0V!
0S!
0M!
0*
0+
14!
11!
0.!
0>
z?
z@
1I
1K
1L
10
11
14
z.
z/
03
#710000
b1111110 #
1R
1i
1a
1T!
1R!
02!
10!
0j
1V!
1S!
04!
01!
1.!
z>
0?
0@
0K
0L
00
01
0.
0/
z3
#720000
b11111110 #
b10111110 #
b10011110 #
b10001110 #
1\
0X
0Q
0R
0G!
1F!
0E!
1d
1_
1A!
0e
0Z
1<!
0f
1Y
1U
0i
0a
1G!
0F!
0T!
0R!
12!
00!
0^
1Z
1H!
1D
0V!
0S!
0_
1(
0H!
14!
11!
z?
z@
0D
1K
1L
10
11
0(
z.
z/
#730000
b10011110 #
1R
1i
1a
1T!
1V!
0L
00
#740000
b10111110 #
b10101110 #
1Q
0R
1?!
0>!
0<!
1f
0Y
0U
0i
0a
0?!
1>!
0T!
1R!
1^
0Z
1@!
1B
0V!
1S!
1_
1*
0@!
0B
0K
1L
10
01
0*
#750000
b111 "
b110 "
b100 "
b10101111 #
b0 "
b10111111 #
0O
05!
07!
06!
1R
1S
0A!
1;!
1i
0f
0d
0[
0V
09!
18!
1T
1J!
1E
1T!
1L!
02!
10!
0N!
0c
1U
1'
1H!
1D
1V!
1M!
1V
1(
04!
01!
1@!
1B
0?
0@
0I
0L
1Q!
00
04
0.
0/
1*
#760000
b11111111 #
b11011111 #
b11001111 #
1X
0Q
0R
1Z
0U
0T
1a
1[
0V
1Y
1U
1b
1D!
0@!
1:!
1A
0B
1C
0Q!
1K!
1/!
0Z
1V
1)
0*
1+
1@!
1B
0[
1Q!
1N!
0K!
0/!
1c
1*
0D!
0C
0Q!
0N!
1K!
0)
#770000
b11011111 #
1R
1T
0a
0Y
0U
0b
0:!
0A
1Z
0V
1Q!
0K!
0c
0+
0@!
0B
1[
0Q!
0*
1D!
1C
1N!
1K!
1/!
1c
1)
#780000
b11111111 #
b11101111 #
1Q
0R
1U
0T
1a
1V
0U
1b
1@!
1:!
1A
1B
1Q!
0K!
0/!
0V
1*
1+
0@!
0B
0Q!
0N!
1K!
1/!
0c
0*
#790000
b11111111 #
1R
1T
0a
1U
0b
0:!
0A
1V
1N!
1c
0+
1@!
1B
0K!
0/!
1*
